C:\Users\Legion\Desktop\FxCalculator\src\main\java\com\devwider\fx\calculator\service\ICalculatorService.java
C:\Users\Legion\Desktop\FxCalculator\src\main\java\com\devwider\fx\calculator\FxCalculator.java
C:\Users\Legion\Desktop\FxCalculator\src\main\java\com\devwider\fx\calculator\service\operation\DoubleArithmeticOperation.java
C:\Users\Legion\Desktop\FxCalculator\src\main\java\com\devwider\fx\calculator\service\operation\ICalculatorOperation.java
C:\Users\Legion\Desktop\FxCalculator\src\main\java\module-info.java
C:\Users\Legion\Desktop\FxCalculator\src\main\java\com\devwider\fx\calculator\service\operation\DoubleCalculatorOperation.java
C:\Users\Legion\Desktop\FxCalculator\src\main\java\com\devwider\fx\calculator\service\operation\IArithmeticOperation.java
C:\Users\Legion\Desktop\FxCalculator\src\main\java\com\devwider\fx\calculator\controller\CalculatorController.java
C:\Users\Legion\Desktop\FxCalculator\src\main\java\com\devwider\fx\calculator\service\CalculatorService.java
